<svg width="15.627171" height="6.740756" fill="none" version="1.1" viewBox="0 0 15.627171 6.7407561" xmlns="http://www.w3.org/2000/svg">
 <style/>
 <rect x=".0033663535" width="15.594007" height=".98645216" fill="#dccfee" style="paint-order:normal"/>
 <rect y="2.8771515" width="15.594007" height=".98645216" fill="#dccfee" style="paint-order:normal"/>
 <rect x=".033164419" y="5.7543039" width="15.594007" height=".98645216" fill="#dccfee" style="paint-order:normal"/>
</svg>
